…
##### I begin by isolating the occurences of extreme temperature of 105 degrees and above and count total occurences of extreme temperature by year and by city. I create a table that I can use to visually explore my data. Some cities do not have any occurences of extreme temperature and give back an NA value in the table.

    #create dummy variable for when average temp is above 105
    # avg count above 105 btwn 1989-2010. 
    all_data2 <- all_data %>%
      mutate(above105 = TMAX >= 105,
             above105 = as.numeric(above105)) %>%
      filter(above105==1) %>%
      group_by(CITY,YEAR) %>%
      summarize(count = n()) %>%
      select(CITY, YEAR, count) %>%
      spread(YEAR, count)
    all_data2

    ## # A tibble: 24 x 31
    ## # Groups:   CITY [24]
    ##    CITY  `1989` `1990` `1991` `1992` `1993` `1994` `1995` `1996` `1997`
    ##    <chr>  <int>  <int>  <int>  <int>  <int>  <int>  <int>  <int>  <int>
    ##  1 BARS…     17     25     13      8      7     31     29     41      9
    ##  2 BLYT…     90     75     71     74     96    102     92     96     90
    ##  3 BUTT…     NA     NA     NA     NA     NA     NA     NA     NA     NA
    ##  4 CAHU…     NA     NA     NA     NA     NA     NA     NA     NA     NA
    ##  5 CHICO      1      6      4      1     NA      1      1      4      2
    ##  6 COAL…      4     16     14     11      7     15     16     41      4
    ##  7 DELA…     NA     NA     NA     NA     NA     NA     NA     NA     NA
    ##  8 EAST…     NA      5      3      3      3     NA     NA      5      1
    ##  9 GOLD…     70     51     60     69     82    100     96     NA     NA
    ## 10 HANF…      1      6      6      2      2     NA     NA      3      2
    ## # … with 14 more rows, and 21 more variables: `1998` <int>, `1999` <int>,
    ## #   `2000` <int>, `2001` <int>, `2002` <int>, `2003` <int>, `2004` <int>,
    ## #   `2005` <int>, `2006` <int>, `2007` <int>, `2008` <int>, `2009` <int>,
    ## #   `2010` <int>, `2011` <int>, `2012` <int>, `2013` <int>, `2014` <int>,
    ## #   `2015` <int>, `2016` <int>, `2017` <int>, `2018` <int>

##### I see that some cities have high counts of extreme temperatures per year while others have none. It seems that some cities are hotter in general than others.

##### I now want to see cumulative counts of extreme temperature by year. My first question is if occurences of extreme temperatures are increasing throughout California. I want to see if my yearly data from all of the selected cities have volatile counts or trends.

    all_data3 <- all_data %>%
      mutate(above105 = TMAX >= 105,
             above105 = as.numeric(above105)) %>%
      filter(above105==1) %>%
      group_by(YEAR) %>%
      summarize(count = n()) %>%
      select(YEAR, count)
    all_data3

    ## # A tibble: 30 x 2
    ##    YEAR  count
    ##    <chr> <int>
    ##  1 1989    319
    ##  2 1990    340
    ##  3 1991    273
    ##  4 1992    304
    ##  5 1993    319
    ##  6 1994    411
    ##  7 1995    485
    ##  8 1996    497
    ##  9 1997    237
    ## 10 1998    283
    ## # … with 20 more rows
…
